[
	{
		"photourl": "https://gitlab.com/cpluspluscompiler/an-automatically-generated-netlist-parser/raw/master/outputimg.png",
		"title": "C++ 小型邏輯閘 Compiler",
		"text": "我用C++做過的一個小型邏輯閘Complier",
		"url": "https://gitlab.com/cpluspluscompiler/an-automatically-generated-netlist-parser",
		"keyword": "compiler,編譯",
		"more": "查看更多關鍵字: c++ / dft / sobel"
	},
	{
		"photourl": "https://gitlab.com/sheepsheepy2117-opencv/dft/raw/master/input.jpg",
		"title": "OpenCV DFT",
		"text": "Discrete Fourier Transform (DFT): 傅立葉轉換",
		"url": "https://gitlab.com/sheepsheepy2117-opencv/dft",
		"keyword": "dft",
		"more": "查看更多關鍵字: c++ / acid rain / sobel"
	},
	{
		"photourl": "https://gitlab.com/sheepsheepy2117-opencv/sobel/raw/master/output.jpg",
		"title": "OpenCV Sobel",
		"text": "Sobel: 邊緣檢測",
		"url": "https://gitlab.com/sheepsheepy2117-opencv/sobel",
		"keyword": "sobel",
		"more": "查看更多關鍵字: c++ / dft / css"
	},
	{
		"photourl": "https://gitlab.com/sheepsheepy2117-androidapp/acid-rain-or-not/raw/master/Documents/MainPage.jpg",
		"title": "Java&JavaAPP",
		"text": "中央氣象局開放資料呈現 & 平面彈幕遊戲",
		"url": "https://gitlab.com/sheepsheepy2117-androidapp/acid-rain-or-not",
		"keyword": "中央氣象局,acid rain or not,opendata,acid rain,acid,acidrain",
		"more": "查看更多關鍵字: c++ / dft / css"
	},
	{
		"photourl": "https://gitlab.com/sheepsheepy/prediction-of-protein-k-formylation/raw/master/information/Evaluation-Cross-Validation.png",
		"title": "生物資訊學專題",
		"text": "生物資訊學專題 : Molecular biology / Amino Acid / Protein",
		"url": "https://gitlab.com/sheepsheepy/prediction-of-protein-k-formylation",
		"keyword": "html,html/css,css,php,machine,mechine learning,protein,amino acid,molecular biology,生物資訊學",
		"more": "查看更多關鍵字: c++ / compiler / sobel"
	}
]